<?xml version="1.0" standalone="no"?>
<!DOCTYPE svg PUBLIC "-//W3C//DTD SVG 1.1//EN" "http://www.w3.org/Graphics/SVG/1.1/DTD/svg11.dtd" >
<svg xmlns="http://www.w3.org/2000/svg">
<metadata></metadata>
<defs>
<font id="helveticabold_oblique" horiz-adv-x="1139" >
<font-face units-per-em="2048" ascent="1638" descent="-410" />
<missing-glyph horiz-adv-x="569" />
<glyph horiz-adv-x="2048" />
<glyph horiz-adv-x="2048" />
<glyph unicode="&#xd;" horiz-adv-x="2048" />
<glyph unicode=" "  horiz-adv-x="569" />
<glyph unicode="&#x09;" horiz-adv-x="569" />
<glyph unicode="&#xa0;" horiz-adv-x="569" />
<glyph unicode="!" horiz-adv-x="682" d="M193 0l59 289h302l-59 -289h-302zM351 403l64 705l74 355h157h158l-74 -355l-228 -705h-76h-75z" />
<glyph unicode="&#x22;" horiz-adv-x="971" d="M395 916l115 554h202l-115 -554h-202zM766 916l115 554h202l-115 -554h-202z" />
<glyph unicode="#" d="M123 404l64 189h193l82 240h-193l64 189h194l140 407h195l-139 -407h202l140 407h195l-139 -407h194l-64 -189h-195l-82 -240h195l-64 -189h-196l-139 -405h-195l139 405h-203l-139 -405h-195l139 405h-193zM575 593h205l82 240h-206z" />
<glyph unicode="$" d="M137 290q1 69 19 152h277q-30 -134 13 -199q32 -48 108 -61l88 423q-219 65 -289 159q-47 63 -48 165q1 52 13 114q41 197 189 309q130 97 312 108l27 131h105l-27 -129q186 -12 271 -110q72 -82 72 -221q0 -48 -9 -104h-260q19 118 -25 167q-29 32 -95 43l-82 -392 q233 -71 314 -162q59 -67 60 -173q0 -46 -11 -97q-44 -212 -203 -331q-139 -105 -341 -119l-42 -200h-105l42 200q-212 13 -306 119q-66 79 -67 208zM580 1063q-18 -85 22 -129q27 -31 96 -57l76 365l-1 -1q-68 -7 -117 -47q-59 -47 -76 -131zM659 183q76 10 131 52 q74 56 94 156q17 79 -32 124q-32 29 -112 59z" />
<glyph unicode="%" horiz-adv-x="1821" d="M279 998q0 16 2.5 39t6.5 42q32 157 163.5 266t288.5 109q132 0 218.5 -83t86.5 -209q0 -17 -2.5 -40.5t-6.5 -42.5q-32 -155 -164 -263q-130 -107 -287 -107q-132 0 -219 82t-87 207zM424 -40l1124 1494h154l-1124 -1494h-154zM497 1040q0 -55 36.5 -89.5t94.5 -34.5 q71 0 125.5 46t69.5 118q2 10 3.5 21.5t1.5 20.5q-1 56 -37 90.5t-94 34.5q-71 0 -126 -47t-70 -120q-2 -9 -3 -20t-1 -20zM1083 278q0 16 2.5 39t6.5 42q32 157 163.5 266t288.5 109q132 0 218.5 -83t86.5 -209q0 -17 -2.5 -40.5t-6.5 -42.5q-32 -155 -164 -263 q-129 -107 -286 -107q-132 0 -219.5 82t-87.5 207zM1301 320q0 -55 36.5 -89.5t94.5 -34.5q71 0 125.5 46t69.5 118q2 10 3.5 21.5t1.5 20.5q-1 56 -37 90.5t-94 34.5q-71 0 -126 -47t-70 -120q-2 -9 -3 -20t-1 -20z" />
<glyph unicode="&#x26;" horiz-adv-x="1479" d="M182 422q30 147 161 258q89 74 232 141q0 6 -4 10q-43 73 -58 147.5t-1 145.5q32 154 160 248t305 94q164 0 244.5 -95t48.5 -250q-21 -98 -152 -221q-81 -78 -171 -128l159 -263l35 53q79 125 99 208h249q-30 -124 -140 -296q-60 -94 -120 -164l193 -310h-345l-71 112 q-89 -59 -166 -94q-128 -55 -285 -55q-215 0 -316 124t-57 335zM467 413q-20 -98 28 -155q47 -57 149 -57q74 0 158 42q41 21 89 55l-71 115l-135 224q-47 -30 -90 -63q-113 -89 -128 -161zM777 1147q-6 -30 2 -66.5t27 -69.5l44 -73q33 23 67 52q92 80 103 135 q13 59 -13.5 93.5t-83.5 34.5q-49 0 -94 -33q-43 -32 -52 -73z" />
<glyph unicode="'" horiz-adv-x="487" d="M338 916l115 554h202l-115 -554h-202z" />
<glyph unicode="(" horiz-adv-x="682" d="M156 59q-37 227 14 476q51 245 183.5 471.5t380.5 492.5h210q-198 -242 -310.5 -468.5t-168.5 -495.5q-56 -275 -38.5 -502t113.5 -463h-210q-135 262 -174 489z" />
<glyph unicode=")" horiz-adv-x="682" d="M-50 -430q199 242 310.5 468.5t167.5 495.5q56 275 39 502t-113 463h210q136 -262 174 -489q37 -227 -15 -476q-51 -245 -184 -472q-130 -226 -379 -492h-210z" />
<glyph unicode="*" horiz-adv-x="797" d="M299 1148l85 163l202 -87l38 243h166l-62 -243l238 87l17 -163l-241 -62l109 -188l-154 -101l-86 204l-170 -204l-114 101l187 188z" />
<glyph unicode="+" horiz-adv-x="1196" d="M168 404l47 226h402l83 402h226l-83 -402h402l-47 -226h-402l-83 -402h-226l83 402h-402z" />
<glyph unicode="," horiz-adv-x="569" d="M57 -345l22 108q109 33 164 105q37 48 63 132h-17h-155l30 149l31 149h155h154l-46 -225q-37 -182 -131.5 -280t-269.5 -138z" />
<glyph unicode="-" horiz-adv-x="682" d="M150 441l55 266h574l-55 -266h-574z" />
<glyph unicode="." horiz-adv-x="569" d="M131 0l61 298h308l-61 -298h-308z" />
<glyph unicode="/" horiz-adv-x="569" d="M-75 -41l797 1552h239l-797 -1552h-239z" />
<glyph unicode="0" d="M176 380q0 65 9 139.5t26 159.5q81 395 244 585t421 190q196 0 293 -105t97 -316q1 -66 -8.5 -142.5t-27.5 -163.5q-82 -390 -245 -578q-160 -187 -417 -187q-196 0 -294 104.5t-98 313.5zM467 373q0 -99 34 -141t113 -42q116 0 186.5 120.5t134.5 426.5q21 99 30 169 t9 130q0 101 -34 145.5t-112 44.5q-123 0 -189 -114t-133 -441q-21 -104 -30 -172.5t-9 -125.5z" />
<glyph unicode="1" d="M354 1008l41 199q135 -5 253 59t201 188h237l-301 -1454h-145h-145l208 1008h-349z" />
<glyph unicode="2" d="M53 0q39 193 161 332t391 300q208 123 289.5 216t81.5 207q0 73 -44.5 115.5t-121.5 42.5q-102 0 -167 -67.5t-93 -202.5h-283q53 240 208.5 375.5t376.5 135.5q194 0 304 -96q109 -96 108 -267q0 -195 -120.5 -339t-426.5 -316q-161 -90 -246 -182h632l-52 -254h-998z " />
<glyph unicode="3" d="M133 439h275q-20 -127 20 -188t143 -61q100 0 175 67.5t98 178.5q2 13 3.5 25t1.5 21q0 72 -57.5 111.5t-164.5 39.5h-71l43 208h52q118 0 189 49q71 48 90 142q3 12 4 26t2 25q0 64 -39 103.5t-103 39.5q-96 0 -160.5 -60t-93.5 -175h-262q29 199 189 331t373 132 q185 0 288.5 -80.5t104.5 -222.5q0 -23 -3 -49.5t-8 -49.5q-31 -151 -185 -252l-50 -29l48 -28q115 -79 115 -218q0 -18 -2.5 -40.5t-6.5 -43.5q-45 -216 -211 -348q-164 -131 -391 -131q-245 0 -345 117t-61 360z" />
<glyph unicode="4" d="M123 321l26 125l26 125l718 886h162h163l-188 -908h164l-47 -228h-164l-66 -321h-285l66 321h-575zM381 549h364l128 617l-474 -595z" />
<glyph unicode="5" d="M131 387h289q0 -102 42 -149.5t133 -47.5q95 0 168 73t98 192q4 22 7 45.5t3 41.5q-1 84 -45.5 133t-120.5 49q-63 0 -124 -29q-59 -28 -95 -74l-254 16l271 792h800l-49 -241h-597l-116 -315q142 78 280 79q156 0 253 -96.5t97 -251.5q-1 -26 -4 -60q-4 -33 -9 -61 q-49 -234 -226 -378q-175 -143 -415 -143q-194 0 -297 112.5t-89 312.5z" />
<glyph unicode="6" d="M174 401q-1 125 33 285q80 389 263 585q171 184 419 184l31 -1q185 0 278 -98t73 -272h-281q-4 70 -36 106.5t-91 36.5h-12q-129 1 -216 -124q-67 -96 -117 -279q143 118 305 118q170 0 266 -88.5t94 -245.5q1 -32 -3 -68.5t-12 -71.5q-45 -218 -219 -362 q-171 -144 -388 -144q-247 0 -338 185q-50 100 -49 254zM440 387q0 -85 47.5 -141t119.5 -56q102 0 173.5 71.5t98.5 198.5q3 16 5 35.5t2 35.5q0 82 -47 132.5t-124 50.5q-92 0 -169 -73q-76 -72 -98 -181q-4 -17 -6 -38t-2 -35z" />
<glyph unicode="7" d="M256 0q95 340 306 655q199 294 462 520h-709l52 254h1024l-22 -110l-23 -111q-288 -241 -493 -556q-206 -314 -296 -652h-301z" />
<glyph unicode="8" d="M141 299q1 31 4.5 66t11.5 70q36 176 197 284q43 29 93 51l-23 14q-102 66 -103 191q0 18 2.5 38.5t6.5 40.5q37 180 186 290t356 110q182 0 284 -80t102 -221q1 -23 -2 -49.5t-8 -49.5q-32 -151 -177 -244q-26 -17 -56 -31q28 -13 50 -28q111 -76 112 -219 q-1 -21 -3.5 -46t-7.5 -51q-45 -213 -210 -343t-392 -130q-204 0 -313 87t-110 250zM442 351q0 -75 45 -118t123 -43q94 0 164 62t90 163q4 17 6 34.5t2 30.5q-1 75 -45 119q-45 44 -123 44q-93 0 -163 -62.5t-92 -165.5q-3 -16 -5 -33.5t-2 -30.5zM595 994q0 -62 41 -98 q41 -35 111 -35q83 0 144.5 50t77.5 131q3 11 4 24t1 25q0 62 -41 98.5t-111 36.5q-83 0 -144 -50.5t-78 -133.5q-2 -11 -3 -24t-2 -24z" />
<glyph unicode="9" d="M160 332h281q4 -70 36.5 -106.5t91.5 -36.5h12q128 -1 215 124q68 97 118 279q-142 -118 -305 -118q-169 0 -264.5 91t-93.5 252q-1 34 3.5 73.5t12.5 76.5q44 214 213.5 350.5t391.5 136.5q247 0 336 -185q51 -100 50 -254q0 -125 -33 -285q-81 -389 -263 -585 q-171 -184 -419 -184l-30 1q-185 0 -279 98t-74 272zM541 864q0 -80 44.5 -121t130.5 -41q97 0 170 69q73 68 96 180q5 21 7.5 43.5t2.5 40.5q-1 84 -46 133t-123 49q-102 0 -174 -70.5t-98 -195.5q-5 -24 -7.5 -46t-2.5 -41z" />
<glyph unicode=":" horiz-adv-x="682" d="M188 0l61 298h308l-61 -298h-308zM343 749l61 298h308l-61 -298h-308z" />
<glyph unicode=";" horiz-adv-x="682" d="M115 -345l23 113q114 35 164 101q35 45 60 131h-17h-153l31 150l30 149h153h153l-46 -225q-36 -176 -133.5 -278.5t-264.5 -140.5zM348 749l61 298h308l-61 -298h-308z" />
<glyph unicode="&#x3c;" horiz-adv-x="1196" d="M168 424l20 93l19 93l1134 443l-46 -220l-810 -315l679 -317l-44 -220z" />
<glyph unicode="=" horiz-adv-x="1196" d="M119 181l47 226h1030l-47 -226h-1030zM212 628l46 226h1030l-46 -226h-1030z" />
<glyph unicode="&#x3e;" horiz-adv-x="1196" d="M74 -19l44 220l811 317l-680 315l46 220l950 -443l-19 -93l-20 -93z" />
<glyph unicode="?" horiz-adv-x="1251" d="M338 1004q35 215 201.5 351.5t393.5 136.5q242 0 353.5 -118.5t68.5 -328.5q-22 -104 -105.5 -195t-271.5 -213q-43 -28 -77.5 -85.5t-45.5 -120.5h-262q26 144 91.5 236.5t194.5 167.5q67 39 118 98t62 112q19 94 -28 149q-47 54 -148 54q-94 0 -157 -61t-97 -183h-291z M490 0l59 286h290l-59 -286h-290z" />
<glyph unicode="@" horiz-adv-x="1997" d="M381 581q0 362 296 644.5t675 282.5q276 0 443.5 -143t167.5 -379q-1 -268 -209.5 -487t-463.5 -219q-62 0 -81 54q-9 23 -6 53q-125 -107 -240 -107q-117 0 -192 73.5t-78 190.5q-1 45 14 108.5t38 119.5q70 161 213 268t290 107q163 0 203 -121l6 -18l47 110h180 l-229 -533q-29 -66 -26.5 -95.5t35.5 -29.5q110 0 221 165t111 328q0 177 -127 284.5t-336 107.5q-307 0 -527.5 -227t-220.5 -543q-1 -206 139.5 -331t371.5 -125q135 0 268.5 49t216.5 129h176q-116 -153 -314.5 -247t-407.5 -94q-288 0 -471 175t-183 450zM920 599 q2 -53 35.5 -82.5t95.5 -29.5q81 0 157 60t119 159q48 114 21.5 176t-124.5 62q-75 0 -153.5 -57.5t-112.5 -137.5q-19 -43 -30 -83q-9 -39 -8 -67z" />
<glyph unicode="A" horiz-adv-x="1479" d="M41 0l841 1470h177h177l206 -1470h-167h-168l-34 308h-543l-164 -308h-162h-163zM663 551h386l-66 595z" />
<glyph unicode="B" horiz-adv-x="1479" d="M156 0l304 1470h153h570q183 0 280 -76t98 -219q-1 -26 -4 -55.5t-9 -59.5q-31 -149 -184 -240q-24 -15 -51 -27q31 -12 56 -30q111 -77 111 -222q0 -23 -3 -48.5t-8 -50.5q-43 -208 -212.5 -325t-427.5 -117h-520h-153zM515 257h353q128 0 199 47t91 145q4 17 6 31t1 26 q0 70 -48 104.5t-145 34.5h-377zM647 896h361q107 0 166.5 38.5t76.5 118.5q2 13 3.5 24.5t1.5 24.5q0 58 -43 84.5t-137 26.5h-363z" />
<glyph unicode="C" horiz-adv-x="1479" d="M219 497q1 50 7.5 111.5t19.5 121.5q74 357 297.5 567t531.5 210q280 0 416 -133q122 -119 122 -334l-2 -55h-307q-7 143 -68 201.5t-202 58.5q-171 0 -299 -139t-177 -375q-10 -46 -15 -93t-5 -85q0 -154 75.5 -241t209.5 -87q122 0 223 75.5t145 199.5h307 q-86 -247 -282.5 -392t-445.5 -145q-258 0 -404.5 141.5t-146.5 392.5z" />
<glyph unicode="D" horiz-adv-x="1479" d="M156 0l304 1470h153h373q295 0 447 -124t152 -365q-1 -50 -7 -106t-18 -114q-86 -411 -279 -586t-562 -175h-410h-153zM512 244h257q201 0 307 100t155 334q14 69 20.5 124.5t7.5 106.5q-1 161 -79.5 236.5t-245.5 75.5h-220z" />
<glyph unicode="E" horiz-adv-x="1366" d="M156 0l304 1470h1085l-25 -131l-25 -131h-783l-64 -305h723l-27 -131l-27 -131h-723l-78 -379h817l-29 -131l-29 -131h-1119z" />
<glyph unicode="F" horiz-adv-x="1251" d="M156 0l304 1470h1054l-25 -131l-25 -131h-752l-68 -328h642l-27 -131l-28 -131h-642l-127 -618h-153h-153z" />
<glyph unicode="G" horiz-adv-x="1593" d="M221 500q0 50 7 111t19 119q74 357 312 567t570 210q279 0 417 -125q122 -112 122 -316q0 -25 -2 -52h-306q-5 114 -76.5 178t-192.5 64q-195 0 -338.5 -141t-192.5 -381q-10 -47 -15 -93t-6 -86q0 -163 87 -249t250 -86q172 0 303 139q74 79 120 187h-341l51 248h612 l-164 -790h-204l9 188l-20 -22q-196 -207 -459 -207t-412.5 142.5t-149.5 394.5z" />
<glyph unicode="H" horiz-adv-x="1479" d="M145 0l304 1470h153h153l-116 -560h581l116 560h153h153l-304 -1470h-153h-153l134 648h-581l-134 -648h-153h-153z" />
<glyph unicode="I" horiz-adv-x="569" d="M131 0l304 1470h153h153l-304 -1470h-153h-153z" />
<glyph unicode="J" d="M123 493l12 58h285l-12 -58q-17 -81 -17 -136q0 -49 13 -79q28 -65 125 -65q99 0 146.5 50.5t74.5 183.5l212 1023h153h153l-212 -1023q-51 -246 -192 -365q-139 -119 -379 -119q-244 0 -331 127q-53 77 -53 208q0 86 22 195z" />
<glyph unicode="K" horiz-adv-x="1479" d="M178 0l304 1470h153h153l-125 -605l699 605h197h197l-725 -611l447 -859h-198h-199l-311 641l-186 -158l-100 -483h-153h-153z" />
<glyph unicode="L" horiz-adv-x="1251" d="M156 0l304 1470h153h153l-250 -1208h731l-29 -131l-29 -131h-1033z" />
<glyph unicode="M" horiz-adv-x="1706" d="M141 0l304 1470h223h224l33 -1167l507 1167h223h224l-304 -1470h-143h-143l258 1247l-538 -1247h-151h-151l-22 1247l-258 -1247h-143h-143z" />
<glyph unicode="N" horiz-adv-x="1479" d="M141 0l304 1470h162h162l378 -1041l216 1041h143h143l-304 -1470h-152h-153l-395 1057l-218 -1057h-143h-143z" />
<glyph unicode="O" horiz-adv-x="1593" d="M219 503q0 50 6.5 110t18.5 117q74 357 308 567t560 210q269 0 421 -144.5t152 -400.5q-1 -50 -7.5 -111.5t-18.5 -120.5q-73 -353 -308 -560q-233 -207 -558 -207q-269 0 -421.5 143t-152.5 397zM536 558q0 -159 82 -248.5t227 -89.5q182 0 317.5 138t184.5 373 q9 44 14 91t6 86q0 161 -82 251.5t-227 90.5q-182 0 -317.5 -140t-184.5 -379q-9 -45 -14.5 -91t-5.5 -82z" />
<glyph unicode="P" horiz-adv-x="1366" d="M156 0l304 1470h153h506q191 0 292 -84.5t101 -243.5v-3q0 -31 -4 -67.5t-12 -74.5q-44 -210 -201 -338t-371 -128h-353l-109 -531h-153h-153zM625 788h295q116 0 182.5 52.5t89.5 161.5q4 20 6 36.5t2 31.5q0 78 -56 113.5t-179 35.5h-251z" />
<glyph unicode="Q" horiz-adv-x="1593" d="M219 503q0 50 6.5 110t18.5 117q74 357 308 567t560 210q269 0 421 -144.5t152 -400.5q-1 -50 -7.5 -111.5t-18.5 -120.5q-66 -321 -267 -521l127 -150l-196 -172l-138 167q-176 -91 -392 -91q-269 0 -421.5 143t-152.5 397zM536 558q0 -159 82 -248.5t227 -89.5 q94 0 174 36l-122 148l188 164l-8 9q-1 0 89 -105l48 -56q94 127 133 315q9 44 14 91t6 86q0 161 -82 251.5t-227 90.5q-182 0 -317.5 -140t-184.5 -379q-9 -45 -14.5 -91t-5.5 -82z" />
<glyph unicode="R" horiz-adv-x="1479" d="M156 0l304 1470h153h612q174 0 272 -83t98 -230q0 -25 -3.5 -55.5t-9.5 -58.5q-38 -186 -189 -287q-47 -31 -104 -54q22 -9 39 -21q85 -58 85 -177q0 -35 -7 -75l-42 -239q-8 -47 -9 -76q0 -16 3 -26q7 -30 40 -48l-8 -39h-339q-6 17 -6 52q1 23 3 51q6 76 21 158l26 134 q5 28 5 52q0 61 -34 92q-46 43 -176 43h-308l-120 -583h-153h-153zM633 827h379q113 0 176 45t83 139q4 20 6 36.5t2 32.5q0 74 -50 107.5t-160 33.5h-355z" />
<glyph unicode="S" horiz-adv-x="1366" d="M166 361v11q0 40 6 84h294q-3 -25 -3 -47q0 -89 51 -137q64 -60 213 -60q148 0 241.5 50t111.5 138q4 20 4 38q0 53 -38 81q-51 37 -231 76q-330 72 -429 163q-69 63 -69 180q0 48 12 106q45 218 221.5 340.5t444.5 122.5q258 0 377 -122q99 -100 100 -277l-5 -79h-298 q0 126 -59 177.5t-203 51.5q-116 0 -191.5 -51.5t-94.5 -143.5q-3 -15 -3 -28q0 -52 47 -80q59 -36 264 -80q308 -67 399 -159q61 -62 61 -176q0 -55 -14 -121q-44 -214 -230 -335q-184 -121 -468 -121t-411 123q-101 98 -100 275z" />
<glyph unicode="T" horiz-adv-x="1251" d="M287 1208l29 131l29 131h1199l-25 -131l-25 -131h-451l-250 -1208h-153h-153l250 1208h-450z" />
<glyph unicode="U" horiz-adv-x="1479" d="M238 350q0 62 15 134l204 986h156h156l-202 -976q-8 -37 -8 -68v-7q-1 -75 37 -123q55 -71 179 -71q143 0 234.5 70t118.5 199l202 976h154h154l-204 -986q-52 -250 -237 -386q-183 -135 -472 -135q-272 0 -399 138q-88 98 -88 249z" />
<glyph unicode="V" horiz-adv-x="1366" d="M352 1470h165h165l78 -1123l565 1123h157h158l-812 -1470h-148h-149z" />
<glyph unicode="W" horiz-adv-x="1933" d="M346 1470h168h169l8 -1058l423 1058h163h163l-4 -1071l475 1071h154h154l-723 -1470h-148h-149l13 1141l-476 -1141h-142h-143z" />
<glyph unicode="X" horiz-adv-x="1366" d="M29 0l635 740l-294 730h181h181l162 -478l369 478h176h176l-593 -701l320 -769h-186h-187l-181 501l-397 -501h-181h-181z" />
<glyph unicode="Y" horiz-adv-x="1366" d="M344 1470h181h181l167 -634l424 634h173h174l-686 -913l-115 -557h-153h-153l115 556z" />
<glyph unicode="Z" horiz-adv-x="1251" d="M51 0l24 120l25 121l964 967h-737l29 131l29 131h1121l-25 -120l-25 -121l-965 -967h762l-29 -131l-29 -131h-1144z" />
<glyph unicode="[" horiz-adv-x="682" d="M43 -405l388 1882h510l-40 -194h-258l-306 -1484h258l-42 -204h-510z" />
<glyph unicode="\" horiz-adv-x="569" d="M254 1511h238l136 -1552h-238z" />
<glyph unicode="]" horiz-adv-x="682" d="M-36 -405l42 204h258l306 1484h-258l40 194h510l-388 -1882h-510z" />
<glyph unicode="^" horiz-adv-x="1196" d="M268 660l530 770h102h102l210 -770h-224l-133 539l-363 -539h-224z" />
<glyph unicode="_" d="M-54 -256l22 104h1139l-22 -104h-1139z" />
<glyph unicode="`" horiz-adv-x="682" d="M279 1537h316l128 -299h-206z" />
<glyph unicode="a" d="M113 211q0 18 2.5 41t7.5 45q28 136 134 228t260 113l242 34q34 5 64 17q38 15 58 43q19 27 19 63q0 43 -27 65q-37 29 -134 29q-74 0 -126 -38.5t-81 -114.5h-271q42 187 184 284t373 97q211 0 305 -82q70 -60 69 -162v-7q0 -32 -8 -68l-123 -593q-11 -51 -11 -86 q0 -15 2 -25q6 -38 35 -53v-1l-8 -39h-155h-155q-3 28 -3 56q0 36 5 71q-169 -157 -371 -157q-134 0 -210.5 63.5t-76.5 176.5zM410 272q0 -46 29.5 -71t82.5 -25q136 0 241 108q18 18 34 50q17 33 23 62l27 132q-41 -23 -90 -34l-116 -23q-114 -23 -163.5 -58t-63.5 -102 q-2 -10 -3 -20t-1 -19z" />
<glyph unicode="b" horiz-adv-x="1251" d="M125 0l304 1470h146h146l-107 -514q162 161 352 161h2q165 0 258 -101t93 -280q-1 -41 -6.5 -92t-15.5 -100q-51 -246 -214.5 -409.5t-359.5 -163.5q-197 0 -278 154l-12 25l-31 -150h-277zM525 551h1q-16 -73 -16 -131q0 -73 25 -124q43 -89 157 -89q108 0 192 89 t114 235q7 32 11 65t4 61q-1 101 -49 156t-135 55q-105 0 -190.5 -89t-113.5 -228z" />
<glyph unicode="c" d="M162 352q0 42 5.5 90.5t15.5 97.5q56 271 225.5 424t414.5 153q209 0 314 -110q87 -90 86 -240l-4 -67h-290q-4 93 -41 134.5t-115 41.5q-112 0 -185.5 -87.5t-110.5 -262.5q-6 -33 -10 -66.5t-4 -61.5q0 -91 40 -141t113 -50q83 0 152 52.5t99 137.5h290 q-69 -196 -227.5 -311t-361.5 -115q-196 0 -301 98t-105 283z" />
<glyph unicode="d" horiz-adv-x="1251" d="M168 369q0 45 6.5 101.5t17.5 111.5q48 230 205 382.5t347 152.5q208 0 292 -157l5 -9l108 519h143h144l-304 -1470h-143h-144l25 123q-158 -152 -350 -152q-165 0 -258.5 105.5t-93.5 292.5zM466 418q0 -101 49.5 -156t139.5 -55q111 0 197 87.5t115 230.5q15 71 15 128 q0 75 -26 127q-45 90 -163 89q-110 0 -196 -90.5t-117 -238.5q-7 -33 -10.5 -65t-3.5 -57z" />
<glyph unicode="e" d="M143 361q1 40 6 86t14 93q56 271 224.5 424t411.5 153q205 0 310 -100t105 -294q0 -48 -6 -103t-19 -114l-7 -35h-746l-2 -14q-4 -30 -4 -57q1 -99 51 -148.5t151 -49.5q73 0 133 31.5t85 82.5h290q-76 -159 -226.5 -252t-330.5 -93q-213 0 -326.5 100.5t-113.5 289.5z M483 658h445l1 38q0 94 -44.5 139.5t-135.5 45.5q-115 0 -191 -89q-44 -52 -75 -134z" />
<glyph unicode="f" horiz-adv-x="682" d="M178 0l182 883h-160l43 205h160l19 91q32 158 131 234.5t272 76.5l132 -3l-48 -236h-87q-58 0 -83 -23.5t-39 -90.5l-10 -49h185l-43 -205h-185l-182 -883h-143h-144z" />
<glyph unicode="g" horiz-adv-x="1251" d="M78 -120h312q0 -60 41.5 -84.5t143.5 -24.5q121 0 192.5 62t97.5 192l31 153q-21 -31 -45 -56q-121 -128 -299 -128q-176 0 -275.5 102.5t-100.5 283.5q0 39 5.5 87t15.5 95q49 239 214 397t365 158q184 0 257 -137q16 -29 27 -66l36 174h270l-214 -1031 q-52 -256 -207.5 -379.5t-425.5 -123.5q-229 0 -344 84q-99 74 -99 201q0 20 2 41zM484 434q0 -97 48 -150.5t136 -53.5q108 0 191 84t111 222q14 68 14 123q0 73 -25 123q-44 86 -158 86q-107 0 -190.5 -87t-112.5 -230q-7 -31 -10 -61.5t-4 -55.5z" />
<glyph unicode="h" horiz-adv-x="1251" d="M133 0l304 1470h143h144l-108 -521l28 28q136 140 330 140q176 1 255 -99q54 -68 54 -172q0 -48 -12 -104l-153 -742h-143h-144l139 672q8 40 8 73q0 51 -20 81q-33 50 -123 50q-110 0 -186 -66.5t-100 -184.5l-129 -625h-143h-144z" />
<glyph unicode="i" horiz-adv-x="569" d="M141 0l225 1088h143h144l-225 -1088h-143h-144zM403 1220l54 262h290l-54 -262h-290z" />
<glyph unicode="j" horiz-adv-x="569" d="M-85 -444l43 228h52q43 0 67.5 22t34.5 70l250 1212h143h144l-250 -1212q-38 -185 -126 -253q-86 -67 -286 -67h-72zM400 1220l54 262h290l-54 -262h-290z" />
<glyph unicode="k" d="M141 0l304 1470h143h144l-166 -800l452 418h175h175l-474 -409l259 -679h-171h-172l-163 466l-150 -130l-69 -336h-143h-144z" />
<glyph unicode="l" horiz-adv-x="569" d="M141 0l304 1470h143h144l-304 -1470h-143h-144z" />
<glyph unicode="m" horiz-adv-x="1821" d="M131 0l225 1088h139h139l-32 -154l44 52q124 131 300 131q159 0 230 -90q31 -37 41 -88l39 47q119 131 289 131q175 0 253 -99q54 -67 53 -170v-7q0 -45 -11 -96l-154 -745h-143h-144l145 705q8 35 8 63q0 41 -17 66q-28 42 -104 42q-98 0 -159 -55t-84 -165l-135 -656 h-143h-144l144 697q7 36 7 64q1 44 -17 71q-30 44 -109 44q-96 0 -155.5 -55t-82.5 -165l-135 -656h-143h-144z" />
<glyph unicode="n" horiz-adv-x="1251" d="M133 0l225 1088h139h139l-32 -156l40 45q136 140 330 140q176 1 255 -99q54 -68 54 -172q0 -48 -12 -104l-153 -742h-143h-144l139 672q8 40 8 73q0 51 -20 81q-33 50 -123 50q-110 0 -186 -66.5t-100 -184.5l-129 -625h-143h-144z" />
<glyph unicode="o" horiz-adv-x="1251" d="M168 386q0 33 4.5 74.5t12.5 79.5q55 265 237.5 421t439.5 156q211 0 333.5 -113t122.5 -307q0 -34 -5 -76t-13 -81q-54 -262 -236.5 -415.5t-438.5 -153.5q-211 0 -333.5 111.5t-123.5 303.5zM468 421q0 -100 53.5 -154.5t152.5 -54.5q131 0 214 86t119 259q6 28 9 56 t3 51q0 101 -54 156.5t-153 55.5q-130 0 -213 -87.5t-120 -263.5q-5 -27 -9 -54q-3 -21 -2 -40v-10z" />
<glyph unicode="p" horiz-adv-x="1251" d="M37 -426l313 1514h135h135l-32 -156l22 23q162 162 356 162q166 0 259.5 -101t93.5 -280q-1 -41 -6.5 -92t-15.5 -100q-51 -246 -215.5 -409.5t-361.5 -163.5q-198 0 -280 154l-2 4l-114 -555h-143h-144zM520 551h1q-16 -73 -16 -131q0 -74 25 -124q44 -89 159 -89 q109 0 194 89t115 235q7 32 11 65q3 26 3 49v11q0 101 -48.5 156.5t-137.5 55.5q-106 0 -192 -89t-114 -228z" />
<glyph unicode="q" horiz-adv-x="1251" d="M164 356q1 41 6.5 92.5t15.5 101.5q51 244 220 405.5t374 161.5q192 0 267 -157l8 -16l30 144h273l-313 -1514h-143h-144l113 548q-157 -150 -350 -151q-167 0 -261.5 102t-95.5 283zM465 411q0 -97 49.5 -150.5t141.5 -53.5q111 0 197 87.5t115 230.5q15 71 15 128 q0 76 -26 127q-45 89 -163 89t-200 -90.5t-117 -258.5q-6 -29 -9 -58q-3 -22 -3 -41v-10z" />
<glyph unicode="r" horiz-adv-x="797" d="M131 0l225 1088h136h137l-46 -221q26 41 57 80q135 170 290 170l69 -1l-51 -244q-36 4 -86 4q-129 0 -212.5 -78.5t-114.5 -228.5l-117 -569h-143h-144z" />
<glyph unicode="s" d="M129 282l5 66h293q-2 -13 -2 -25q0 -63 45 -97q53 -40 175 -39q80 0 131.5 29.5t62.5 81.5q1 6 1 12q0 32 -38 55q-45 27 -168 56q-242 56 -319 128q-56 53 -56 140q0 34 8 72q34 164 172.5 260t340.5 96q234 0 341 -90q85 -71 85 -197q0 -31 -6 -68h-276q0 76 -38 107.5 t-131 31.5q-85 0 -137.5 -25t-61.5 -69q-1 -6 -1 -12q0 -30 35 -53q43 -26 159 -53q256 -60 338 -134q61 -55 61 -146q0 -33 -8 -71q-35 -169 -185.5 -268t-373.5 -99q-248 0 -360 94q-91 77 -92 217z" />
<glyph unicode="t" horiz-adv-x="682" d="M205 883l43 205h149l60 293h287l-60 -293h173l-43 -205h-173l-127 -614q-7 -34 15 -49.5t77 -15.5l69 4l-44 -216q-70 -5 -177 -5q-156 1 -210 53q-36 35 -36 104q0 34 9 76l137 663h-149z" />
<glyph unicode="u" horiz-adv-x="1251" d="M201 261q0 56 14 123l146 704h143h144l-139 -672q-9 -42 -9 -75q0 -49 20 -79q33 -50 123 -50q110 0 186 66.5t100 184.5l130 625h143h144l-225 -1088h-139h-139l32 159q-17 -24 -41 -48q-135 -140 -329 -140q-176 0 -254 110q-50 71 -50 180z" />
<glyph unicode="v" d="M258 1088h160h160l60 -802l401 802h152h152l-617 -1088h-150h-151z" />
<glyph unicode="w" horiz-adv-x="1593" d="M252 1088h151h152l4 -794l328 794h144h144l-3 -791l336 791h149h149l-539 -1088h-150h-151l-2 799l-344 -799h-145h-146z" />
<glyph unicode="x" d="M31 0l491 560l-248 528h174h175l117 -316l247 316h169h170l-465 -539l255 -549h-178h-178l-118 330l-262 -330h-174h-175z" />
<glyph unicode="y" d="M86 -448l47 228q9 -4 56 -4q117 0 160 45q29 29 73 130l-172 1137h160h160l66 -812l397 812h151h151l-593 -1080q-164 -301 -256 -382t-267 -81q-79 0 -133 7z" />
<glyph unicode="z" horiz-adv-x="1024" d="M41 0l26 117l26 117l686 620l8 7h-518l25 113l26 114h877l-24 -117l-25 -117l-686 -619h564l-22 -117l-22 -118h-941z" />
<glyph unicode="{" horiz-adv-x="797" d="M193 445l39 192q110 0 167 57t81 190l51 250q37 204 153 279.5t376 63.5l-37 -182q-126 6 -176 -27t-68 -134l-51 -250q-37 -212 -141 -283q-63 -43 -187 -60q117 -17 162 -60q74 -71 24 -283l-51 -250q-24 -101 12 -134t164 -27l-37 -182q-266 -12 -351 63.5t-36 279.5 l51 250q31 133 -2 190t-143 57z" />
<glyph unicode="|" horiz-adv-x="573" d="M64 -512l424 2048h234l-424 -2048h-234z" />
<glyph unicode="}" horiz-adv-x="797" d="M-36 -395l37 182q126 -6 176 27t68 134l51 250q36 212 140 283q63 43 188 60q-118 17 -163 60q-74 71 -23 283l51 250q24 101 -12 134t-164 27l37 182q266 12 351 -63.5t36 -279.5l-51 -250q-32 -133 1 -190t143 -57l-39 -192q-110 0 -167 -57t-80 -190l-51 -250 q-37 -204 -153 -280q-116 -75 -376 -63z" />
<glyph unicode="~" horiz-adv-x="1196" d="M236 515q54 81 134 129t162 48q48 0 101.5 -18t136.5 -61q54 -28 98.5 -44.5t67.5 -16.5q49 0 99.5 36t110.5 113l35 -184q-65 -83 -142 -130t-149 -47q-53 0 -107 21t-134 72q-36 23 -83 37t-91 14q-48 0 -107.5 -44.5t-96.5 -108.5z" />
<glyph unicode="&#xa1;" horiz-adv-x="682" d="M102 -382l75 364l230 703h78h77l-62 -703l-75 -364h-161h-162zM357 799l59 289h302l-59 -289h-302z" />
<glyph unicode="&#xa2;" d="M162 347q-1 39 4.5 83.5t14.5 88.5q60 288 230.5 444.5t426.5 156.5q45 1 81 -5l82 168h109l-92 -190q76 -25 124 -78q83 -90 84 -251l-3 -58h-290q-8 90 -40 131l-303 -622l34 -3q81 0 148 49.5t95 130.5h291q-67 -194 -226.5 -307.5t-364.5 -113.5q-48 0 -91 6 l-107 -219h-109l118 243q-63 26 -111 69q-105 99 -105 277zM464 400q1 -90 43 -139l-2 2l300 616h-24q-114 0 -190 -90.5t-114 -272.5l-9 -61q-3 -30 -4 -55z" />
<glyph unicode="&#xa3;" d="M102 172q101 53 190.5 146.5t102.5 159.5q12 55 5 103q-2 28 -18 74h-190l26 123h128q-30 98 -36 153q-6 67 14 162q30 147 204.5 262t366.5 115q241 0 342 -119t53 -348h-267q13 131 -26 185t-148 54q-80 0 -154 -53.5t-89 -122.5q-10 -49 -5.5 -89t28.5 -126l19 -73 h272l-26 -123h-226q1 -53 -13 -122q-24 -114 -178 -248q-41 -35 -83 -65l5 1q150 43 209 43q38 0 76 -6t54 -15q26 -14 69 -24t79 -10q42 0 102 20.5t105 49.5l33 -217q-72 -42 -168 -70.5t-164 -28.5q-37 0 -99 15t-116 37q-39 16 -88 27t-80 11q-29 0 -99 -21.5 t-143 -53.5z" />
<glyph unicode="&#xa4;" d="M55 285l244 201q-44 106 -14 241t122 241l-154 201l165 135l155 -202q118 65 250 65q132 -1 223 -65l245 202l105 -135l-245 -202q44 -104 14 -240q-31 -134 -121 -241l154 -201l-165 -135l-156 203q-116 -66 -250 -66q-132 1 -223 64l-244 -201zM516 727 q-22 -97 24 -163.5t134 -66.5t163 66.5t97 163.5t-24 163.5t-134 66.5t-164 -67q-74 -66 -96 -163z" />
<glyph unicode="&#xa5;" d="M123 432l25 121h411l2 8l-48 150h-332l25 121h268l-193 597h157h157l162 -602l409 602h146h146l-434 -597h264l-25 -121h-327l-115 -158h409l-25 -121h-411l-89 -432h-130h-130l89 432h-411z" />
<glyph unicode="&#xa6;" horiz-adv-x="573" d="M104 -342l140 683h234l-140 -683h-234zM315 682l141 683h234l-141 -683h-234z" />
<glyph unicode="&#xa7;" d="M125 8h267q2 -93 37.5 -131t121.5 -38q55 0 107 42t64 95q10 50 -33 95t-165 113q-230 126 -296 207t-38 205q35 160 196 266l54 32l-14 20q-61 81 -31 215q35 156 169 260q134 103 301 103q206 0 297 -94.5t58 -275.5h-264q6 82 -25.5 115.5t-114.5 33.5 q-52 0 -101 -35.5t-59 -80.5q-9 -38 39.5 -79.5t181.5 -111.5q219 -116 281 -193.5t35 -201.5q-34 -151 -193 -251q-35 -22 -74 -40q29 -26 45 -50q60 -84 28 -225q-36 -166 -179 -276q-141 -109 -319 -109q-205 0 -300.5 99.5t-75.5 290.5zM462 673q-13 -57 38 -110 t199 -133q56 -30 101 -60l28 15q79 47 92 107q13 58 -33.5 107t-180.5 119q-80 43 -140 80l-8 -4q-81 -53 -96 -121z" />
<glyph unicode="&#xa8;" horiz-adv-x="682" d="M281 1257l48 235h258l-48 -235h-258zM683 1257l48 235h258l-48 -235h-258z" />
<glyph unicode="&#xa9;" horiz-adv-x="1509" d="M115 731q67 326 340 550.5t601 224.5t508 -224.5t113 -550.5q-68 -326 -340.5 -550.5t-600.5 -224.5t-508.5 224.5t-112.5 550.5zM338 731q-52 -251 74 -424t360 -173t432 173t250 424t-73.5 424t-360.5 173t-432.5 -173t-249.5 -424zM482 633q0 237 151 394.5t378 157.5 q147 0 223 -79t76 -230h-179q-6 65 -45.5 98.5t-111.5 33.5q-120 0 -196 -96t-76 -247q0 -92 44 -141t126 -49q65 0 120 40t80 105h185q-57 -148 -173 -235t-257 -87q-158 0 -251.5 91t-93.5 244z" />
<glyph unicode="&#xaa;" horiz-adv-x="758" d="M188 569l34 163h616l-34 -163h-616zM256 964q0 11 1.5 24.5t3.5 25.5q17 82 80.5 138t152.5 68l197 27l24 4q21 4 34 18.5t15 37.5q3 26 -24 41t-91 15q-46 0 -79.5 -21t-54.5 -63h-175q40 117 128 173t233 56q138 0 201 -49q46 -37 47 -101l-5 -42l-72 -348 q-10 -49 -4.5 -73.5t26.5 -30.5v-1l-5 -24h-101h-102q-1 31 2 78q-108 -94 -259 -94q-81 0 -127 37.5t-46 103.5zM453 1006q0 -27 18 -44t48 -17q99 0 160 60q12 13 24 37q12 25 17 49l13 61l-43 -11l-108 -21q-62 -13 -90.5 -33.5t-36.5 -60.5q-2 -10 -2 -20z" />
<glyph unicode="&#xab;" d="M276 453l25 120l25 120l406 295l-49 -237l-245 -178l171 -179l-49 -237zM707 453l25 120l25 120l406 295l-49 -237l-245 -178l171 -179l-49 -237z" />
<glyph unicode="&#xac;" horiz-adv-x="1196" d="M215 631l47 226h1030l-131 -634h-226l84 408h-804z" />
<glyph unicode="&#xad;" horiz-adv-x="682" d="M150 441l55 266h574l-55 -266h-574z" />
<glyph unicode="&#xae;" horiz-adv-x="1509" d="M113 731q67 326 340 550.5t601 224.5t508 -224.5t113 -550.5q-68 -326 -340.5 -550.5t-600.5 -224.5t-508.5 224.5t-112.5 550.5zM336 731q-52 -251 74 -424t360 -173t432 173t250 424t-73.5 424t-360.5 173t-432.5 -173t-249.5 -424zM504 313l174 837h89h232 q139 0 212 -47.5t73 -134.5v-3q0 -14 -1.5 -28.5t-3.5 -28.5q-28 -131 -113 -185q-47 -31 -131 -43l134 -367h-106h-107l-115 356h-84l-74 -356h-89h-90zM786 808h104q100 0 143.5 22t55.5 79q3 14 3 23q0 42 -43.5 61t-138.5 19h-82z" />
<glyph unicode="&#xaf;" horiz-adv-x="682" d="M250 1235l32 152h702l-32 -152h-702z" />
<glyph unicode="&#xb0;" horiz-adv-x="819" d="M358 1165q27 123 130.5 208.5t225.5 85.5t186.5 -85.5t37.5 -208.5q-28 -123 -131 -208t-225 -85t-187 85t-37 208zM472 1165q-17 -75 22.5 -127t113.5 -52t136.5 52t79.5 127q17 76 -22.5 128t-113.5 52t-136.5 -52t-79.5 -128z" />
<glyph unicode="&#xb1;" horiz-adv-x="1196" d="M82 -2l46 226h1030l-46 -226h-1030zM196 554l47 226h402l53 258h226l-53 -258h402l-47 -226h-402l-53 -258h-226l53 258h-402z" />
<glyph unicode="&#xb2;" horiz-adv-x="682" d="M141 581q25 120 106 207t262 188q121 68 168 119t46 111q0 41 -28.5 63.5t-79.5 22.5q-65 0 -104.5 -37.5t-55.5 -113.5h-185q32 147 132.5 230t244.5 83q127 0 199 -60t72 -167q0 -115 -77 -200q-75 -85 -269 -187q-89 -46 -141 -94h394l-34 -165h-650z" />
<glyph unicode="&#xb3;" horiz-adv-x="682" d="M186 843h186q-11 -68 13.5 -101t87.5 -33q69 0 109 33t54 102q3 13 3 23q0 41 -35.5 63t-101.5 22h-46l29 140h33q76 0 117 25q40 24 51 78q3 13 3 28q0 36 -24 57t-65 21q-57 0 -95 -32t-54 -93h-176q18 120 120 199t238 79q114 0 184.5 -54t70.5 -141q0 -11 -1.5 -24.5 t-3.5 -24.5q-19 -93 -117 -153l-25 -14l26 -14q75 -48 75 -134q0 -11 -1.5 -24t-3.5 -25q-28 -136 -130 -213t-255 -77q-159 0 -224 70.5t-42 216.5z" />
<glyph unicode="&#xb4;" horiz-adv-x="682" d="M483 1238l257 297h313l-361 -297h-209z" />
<glyph unicode="&#xb5;" horiz-adv-x="1251" d="M45 -424l153 750l158 762h287l-140 -677q-20 -95 21 -147t136 -52q92 0 164 61.5t92 158.5l136 656h287l-225 -1088h-273l31 154q-18 -26 -41 -52q-118 -131 -255 -131q-104 0 -151 59h-1l-92 -454h-287z" />
<glyph unicode="&#xb6;" d="M201 996q0 197 149 317t392 120h661l-376 -1822h-231l341 1650h-204l-341 -1650h-226l226 1098q-183 2 -287 77t-104 210z" />
<glyph unicode="&#xb7;" horiz-adv-x="569" d="M245 556l62 300h304l-62 -300h-304z" />
<glyph unicode="&#xb8;" horiz-adv-x="682" d="M-75 -413l65 96q47 -15 87.5 -24t63.5 -9q40 0 73 23t40 57q6 30 -13 52t-51 22q-12 0 -39 -5t-46 -11l-35 41l151 171h118l-101 -111l60 7q82 0 123 -44t26 -116q-18 -87 -102.5 -145t-194.5 -58q-60 0 -117 14t-108 40z" />
<glyph unicode="&#xb9;" horiz-adv-x="682" d="M303 1177l27 129q85 -6 162 32q77 39 134 116h168l-181 -873h-103h-103l123 596h-227z" />
<glyph unicode="&#xba;" horiz-adv-x="748" d="M188 550l34 163h614l-34 -163h-614zM251 1074v3q-1 18 2 41t7 44q33 158 149.5 251t283.5 93q139 0 220.5 -68.5t80.5 -185.5v-3q0 -18 -2.5 -41.5t-7.5 -45.5q-32 -156 -148.5 -247.5t-283.5 -91.5q-139 0 -221 69q-80 67 -80 182zM452 1100q0 -60 35.5 -96.5 t94.5 -36.5q76 0 130 54.5t74 151.5q3 14 4.5 28.5t2.5 25.5q-1 61 -35.5 98t-93.5 37q-76 0 -130.5 -55.5t-75.5 -153.5q-2 -13 -3.5 -27.5t-2.5 -25.5z" />
<glyph unicode="&#xbb;" d="M213 157l49 237l245 178l-171 179l49 237l284 -296l-25 -120l-25 -120zM644 157l49 237l245 178l-171 179l49 237l284 -296l-25 -120l-25 -120z" />
<glyph unicode="&#xbc;" horiz-adv-x="1708" d="M270 -44l1195 1499h158l-1195 -1499h-158zM297 1177l27 129q85 -6 162 32q77 39 134 116h168l-181 -873h-103h-103l123 596h-227zM942 187l19 80l20 81l491 500h96h96l-122 -505h107l-37 -156h-107l-45 -187h-197l45 187h-366zM1188 343h157l52 217l-203 -212z" />
<glyph unicode="&#xbd;" horiz-adv-x="1708" d="M270 -44l1195 1499h158l-1195 -1499h-158zM297 1177l27 129q85 -6 162 32q77 39 134 116h168l-181 -873h-103h-103l123 596h-227zM981 0q25 120 106 207t262 188q121 68 168 119t46 111q0 41 -28.5 63.5t-79.5 22.5q-65 0 -104.5 -37.5t-55.5 -113.5h-185 q32 147 132.5 230t244.5 83q127 0 199 -60t72 -167q0 -115 -77 -200q-75 -85 -269 -187q-89 -46 -141 -94h394l-34 -165h-650z" />
<glyph unicode="&#xbe;" horiz-adv-x="1708" d="M203 843h186q-11 -68 13.5 -101t87.5 -33q69 0 109 33t54 102q3 13 3 23q0 41 -35.5 63t-101.5 22h-46l29 140h33q76 0 117 25q40 24 51 78q3 13 3 28q0 36 -24 57t-65 21q-57 0 -95 -32t-54 -93h-176q18 120 120 199t238 79q114 0 184.5 -54t70.5 -141q0 -11 -1.5 -24.5 t-3.5 -24.5q-19 -93 -117 -153l-25 -14l26 -14q75 -48 75 -134q0 -11 -1.5 -24t-3.5 -25q-28 -136 -130 -213t-255 -77q-159 0 -224 70.5t-42 216.5zM352 -44l1195 1499h158l-1195 -1499h-158zM984 187l19 80l20 81l491 500h96h96l-122 -505h107l-37 -156h-107l-45 -187 h-197l45 187h-366zM1230 343h157l52 217l-203 -212z" />
<glyph unicode="&#xbf;" horiz-adv-x="1251" d="M109 47q22 105 97.5 184t277.5 211q46 31 83 92t48 127h262q-26 -148 -92 -244.5t-197 -176.5q-68 -42 -119 -96q-49 -54 -58 -97q-18 -94 29 -149q47 -54 148 -54q91 0 157 61t108 183h284q-51 -215 -218.5 -351.5t-380.5 -136.5q-244 0 -357.5 118.5t-71.5 328.5z M631 806l60 286h290l-60 -286h-290z" />
<glyph unicode="&#xc0;" horiz-adv-x="1479" d="M41 0l841 1470h177h177l206 -1470h-167h-168l-34 308h-543l-164 -308h-162h-163zM663 551h386l-66 595zM771 1919h316l129 -299h-206z" />
<glyph unicode="&#xc1;" horiz-adv-x="1479" d="M41 0l841 1470h177h177l206 -1470h-167h-168l-34 308h-543l-164 -308h-162h-163zM663 551h386l-66 595zM984 1620l256 297h313l-360 -297h-209z" />
<glyph unicode="&#xc2;" horiz-adv-x="1479" d="M41 0l841 1470h177h177l206 -1470h-167h-168l-34 308h-543l-164 -308h-162h-163zM663 551h386l-66 595zM736 1620l300 299h127h127l168 -299h-229l-95 167l-164 -167h-234z" />
<glyph unicode="&#xc3;" horiz-adv-x="1479" d="M41 0l841 1470h177h177l206 -1470h-167h-168l-34 308h-543l-164 -308h-162h-163zM663 551h386l-66 595zM732 1635q43 114 124 181t175 67q26 0 70 -12.5t82 -30.5q29 -13 60.5 -22.5t48.5 -9.5q34 0 67.5 24.5t47.5 60.5h130q-40 -117 -112.5 -182.5t-160.5 -65.5 q-31 0 -83 12.5t-95 30.5q-34 13 -65.5 22.5t-44.5 9.5q-33 0 -66 -24.5t-48 -60.5h-130z" />
<glyph unicode="&#xc4;" horiz-adv-x="1479" d="M41 0l841 1470h177h177l206 -1470h-167h-168l-34 308h-543l-164 -308h-162h-163zM663 551h386l-66 595zM763 1639l49 235h258l-49 -235h-258zM1165 1639l49 235h258l-49 -235h-258z" />
<glyph unicode="&#xc5;" horiz-adv-x="1479" d="M41 0l841 1470h177h177l206 -1470h-167h-168l-34 308h-543l-164 -308h-162h-163zM663 551h386l-66 595zM898 1761q18 89 95 151t170 62t144 -62t33 -151q-19 -89 -95 -151t-169 -62t-145 62t-33 151zM1012 1761q-9 -42 16 -70.5t70 -28.5t82 28.5t46 70.5q8 42 -17 70.5 t-70 28.5t-82 -28.5t-45 -70.5z" />
<glyph unicode="&#xc6;" horiz-adv-x="2048" d="M10 0l844 1470h633h752l-25 -131l-25 -131h-756l-64 -305h678l-27 -131l-27 -131h-678l-78 -379h767l-29 -131l-29 -131h-763h-299l66 319h-444l-174 -319h-161h-161zM641 562h359l134 646h-138z" />
<glyph unicode="&#xc7;" horiz-adv-x="1479" d="M219 497q1 50 7.5 111.5t19.5 121.5q74 357 297.5 567t531.5 210q280 0 416 -133q122 -119 122 -334l-2 -55h-307q-7 143 -68 201.5t-202 58.5q-171 0 -299 -139t-177 -375q-10 -46 -15 -93t-5 -85q0 -154 75.5 -241t209.5 -87q122 0 223 75.5t145 199.5h307 q-86 -247 -282.5 -392t-445.5 -145q-258 0 -404.5 141.5t-146.5 392.5zM368 -413l65 96q46 -15 86.5 -24t64.5 -9q40 0 73 23t40 57q6 30 -13 52t-51 22q-12 0 -39 -5t-46 -11l-35 41l151 171h118l-101 -111l60 7q82 0 123 -44t26 -116q-18 -87 -102.5 -145t-194.5 -58 q-60 0 -117 14t-108 40z" />
<glyph unicode="&#xc8;" horiz-adv-x="1366" d="M156 0l304 1470h1085l-25 -131l-25 -131h-783l-64 -305h723l-27 -131l-27 -131h-723l-78 -379h817l-29 -131l-29 -131h-1119zM705 1919h316l129 -299h-206z" />
<glyph unicode="&#xc9;" horiz-adv-x="1366" d="M156 0l304 1470h1085l-25 -131l-25 -131h-783l-64 -305h723l-27 -131l-27 -131h-723l-78 -379h817l-29 -131l-29 -131h-1119zM918 1620l256 297h313l-360 -297h-209z" />
<glyph unicode="&#xca;" horiz-adv-x="1366" d="M156 0l304 1470h1085l-25 -131l-25 -131h-783l-64 -305h723l-27 -131l-27 -131h-723l-78 -379h817l-29 -131l-29 -131h-1119zM670 1620l300 299h127h127l168 -299h-229l-95 167l-164 -167h-234z" />
<glyph unicode="&#xcb;" horiz-adv-x="1366" d="M156 0l304 1470h1085l-25 -131l-25 -131h-783l-64 -305h723l-27 -131l-27 -131h-723l-78 -379h817l-29 -131l-29 -131h-1119zM697 1639l49 235h258l-49 -235h-258zM1099 1639l49 235h258l-49 -235h-258z" />
<glyph unicode="&#xcc;" horiz-adv-x="569" d="M131 0l304 1470h153h153l-304 -1470h-153h-153zM300 1919h316l129 -299h-206z" />
<glyph unicode="&#xcd;" horiz-adv-x="569" d="M131 0l304 1470h153h153l-304 -1470h-153h-153zM513 1620l256 297h313l-360 -297h-209z" />
<glyph unicode="&#xce;" horiz-adv-x="569" d="M131 0l304 1470h153h153l-304 -1470h-153h-153zM265 1620l300 299h127h127l168 -299h-229l-95 167l-164 -167h-234z" />
<glyph unicode="&#xcf;" horiz-adv-x="569" d="M131 0l304 1470h153h153l-304 -1470h-153h-153zM292 1639l49 235h258l-49 -235h-258zM694 1639l49 235h258l-49 -235h-258z" />
<glyph unicode="&#xd0;" horiz-adv-x="1479" d="M127 645l53 256h165l118 569h153h372q294 0 445.5 -124t151.5 -365q-1 -50 -7 -106t-18 -115q-86 -410 -278.5 -585t-560.5 -175h-409h-153l133 645h-165zM515 244h256q200 0 305.5 100t154.5 334q14 69 20.5 125t7.5 107q0 160 -78 235.5t-245 75.5h-219l-66 -320h332 l-53 -256h-332z" />
<glyph unicode="&#xd1;" horiz-adv-x="1479" d="M141 0l304 1470h162h162l378 -1041l216 1041h143h143l-304 -1470h-152h-153l-395 1057l-218 -1057h-143h-143zM720 1635q43 114 124 181t175 67q26 0 70 -12.5t82 -30.5q29 -13 60.5 -22.5t48.5 -9.5q34 0 67.5 24.5t47.5 60.5h130q-40 -117 -112.5 -182.5t-160.5 -65.5 q-31 0 -83 12.5t-95 30.5q-34 13 -65.5 22.5t-44.5 9.5q-33 0 -66 -24.5t-48 -60.5h-130z" />
<glyph unicode="&#xd2;" horiz-adv-x="1593" d="M219 503q0 50 6.5 110t18.5 117q74 357 308 567t560 210q269 0 421 -144.5t152 -400.5q-1 -50 -7.5 -111.5t-18.5 -120.5q-73 -353 -308 -560q-233 -207 -558 -207q-269 0 -421.5 143t-152.5 397zM536 558q0 -159 82 -248.5t227 -89.5q182 0 317.5 138t184.5 373 q9 44 14 91t6 86q0 161 -82 251.5t-227 90.5q-182 0 -317.5 -140t-184.5 -379q-9 -45 -14.5 -91t-5.5 -82zM816 1919h316l129 -299h-206z" />
<glyph unicode="&#xd3;" horiz-adv-x="1593" d="M219 503q0 50 6.5 110t18.5 117q74 357 308 567t560 210q269 0 421 -144.5t152 -400.5q-1 -50 -7.5 -111.5t-18.5 -120.5q-73 -353 -308 -560q-233 -207 -558 -207q-269 0 -421.5 143t-152.5 397zM536 558q0 -159 82 -248.5t227 -89.5q182 0 317.5 138t184.5 373 q9 44 14 91t6 86q0 161 -82 251.5t-227 90.5q-182 0 -317.5 -140t-184.5 -379q-9 -45 -14.5 -91t-5.5 -82zM1029 1620l256 297h313l-360 -297h-209z" />
<glyph unicode="&#xd4;" horiz-adv-x="1593" d="M219 503q0 50 6.5 110t18.5 117q74 357 308 567t560 210q269 0 421 -144.5t152 -400.5q-1 -50 -7.5 -111.5t-18.5 -120.5q-73 -353 -308 -560q-233 -207 -558 -207q-269 0 -421.5 143t-152.5 397zM536 558q0 -159 82 -248.5t227 -89.5q182 0 317.5 138t184.5 373 q9 44 14 91t6 86q0 161 -82 251.5t-227 90.5q-182 0 -317.5 -140t-184.5 -379q-9 -45 -14.5 -91t-5.5 -82zM781 1620l300 299h127h127l168 -299h-229l-95 167l-164 -167h-234z" />
<glyph unicode="&#xd5;" horiz-adv-x="1593" d="M219 503q0 50 6.5 110t18.5 117q74 357 308 567t560 210q269 0 421 -144.5t152 -400.5q-1 -50 -7.5 -111.5t-18.5 -120.5q-73 -353 -308 -560q-233 -207 -558 -207q-269 0 -421.5 143t-152.5 397zM536 558q0 -159 82 -248.5t227 -89.5q182 0 317.5 138t184.5 373 q9 44 14 91t6 86q0 161 -82 251.5t-227 90.5q-182 0 -317.5 -140t-184.5 -379q-9 -45 -14.5 -91t-5.5 -82zM777 1635q43 114 124 181t175 67q26 0 70 -12.5t82 -30.5q29 -13 60.5 -22.5t48.5 -9.5q34 0 67.5 24.5t47.5 60.5h130q-40 -117 -112.5 -182.5t-160.5 -65.5 q-31 0 -83 12.5t-95 30.5q-34 13 -65.5 22.5t-44.5 9.5q-33 0 -66 -24.5t-48 -60.5h-130z" />
<glyph unicode="&#xd6;" horiz-adv-x="1593" d="M219 503q0 50 6.5 110t18.5 117q74 357 308 567t560 210q269 0 421 -144.5t152 -400.5q-1 -50 -7.5 -111.5t-18.5 -120.5q-73 -353 -308 -560q-233 -207 -558 -207q-269 0 -421.5 143t-152.5 397zM536 558q0 -159 82 -248.5t227 -89.5q182 0 317.5 138t184.5 373 q9 44 14 91t6 86q0 161 -82 251.5t-227 90.5q-182 0 -317.5 -140t-184.5 -379q-9 -45 -14.5 -91t-5.5 -82zM808 1639l49 235h258l-49 -235h-258zM1210 1639l49 235h258l-49 -235h-258z" />
<glyph unicode="&#xd7;" horiz-adv-x="1196" d="M117 162l430 355l-283 355l193 160l281 -356l429 356l127 -160l-429 -355l282 -355l-193 -160l-281 356l-429 -356z" />
<glyph unicode="&#xd8;" horiz-adv-x="1593" d="M72 21l218 193q-69 119 -68 289q0 50 6.5 110t18.5 117q74 357 308 567t560 210q269 0 421 -145l25 -23l205 182l72 -72l-218 -193q68 -121 68 -294q-1 -50 -7.5 -111.5t-18.5 -120.5q-73 -353 -308 -560q-233 -207 -558 -207q-269 0 -423 143l-26 24l-203 -181zM539 558 q0 -61 12 -113l421 372l344 305q-12 21 -28 38q-82 90 -227 90q-182 0 -317.5 -140t-184.5 -379q-9 -45 -14.5 -91t-5.5 -82zM592 347q12 -20 29 -38q82 -89 227 -89q182 0 317.5 138t184.5 373q9 44 14 91t6 86q-1 64 -12 116l-420 -371z" />
<glyph unicode="&#xd9;" horiz-adv-x="1479" d="M238 350q0 62 15 134l204 986h156h156l-202 -976q-9 -41 -8 -75q-1 -75 37 -123q55 -71 179 -71q143 0 234.5 70t118.5 199l202 976h154h154l-204 -986q-52 -250 -237 -386q-183 -135 -472 -135q-272 0 -399 138q-88 98 -88 249zM760 1919h316l129 -299h-206z" />
<glyph unicode="&#xda;" horiz-adv-x="1479" d="M238 350q0 62 15 134l204 986h156h156l-202 -976q-9 -41 -8 -75q-1 -75 37 -123q55 -71 179 -71q143 0 234.5 70t118.5 199l202 976h154h154l-204 -986q-52 -250 -237 -386q-183 -135 -472 -135q-272 0 -399 138q-88 98 -88 249zM973 1620l256 297h313l-360 -297h-209z " />
<glyph unicode="&#xdb;" horiz-adv-x="1479" d="M238 350q0 62 15 134l204 986h156h156l-202 -976q-9 -41 -8 -75q-1 -75 37 -123q55 -71 179 -71q143 0 234.5 70t118.5 199l202 976h154h154l-204 -986q-52 -250 -237 -386q-183 -135 -472 -135q-272 0 -399 138q-88 98 -88 249zM725 1620l300 299h127h127l168 -299h-229 l-95 167l-164 -167h-234z" />
<glyph unicode="&#xdc;" horiz-adv-x="1479" d="M238 350q0 62 15 134l204 986h156h156l-202 -976q-9 -41 -8 -75q-1 -75 37 -123q55 -71 179 -71q143 0 234.5 70t118.5 199l202 976h154h154l-204 -986q-52 -250 -237 -386q-183 -135 -472 -135q-272 0 -399 138q-88 98 -88 249zM752 1639l49 235h258l-49 -235h-258z M1154 1639l49 235h258l-49 -235h-258z" />
<glyph unicode="&#xdd;" horiz-adv-x="1366" d="M344 1470h181h181l167 -634l424 634h173h174l-686 -913l-115 -557h-153h-153l115 556zM919 1620l256 297h313l-360 -297h-209z" />
<glyph unicode="&#xde;" horiz-adv-x="1366" d="M156 0l304 1470h153h153l-42 -200l372 1q176 0 275 -89.5t99 -248.5q-1 -30 -4.5 -65.5t-10.5 -69.5q-45 -215 -194.5 -341t-359.5 -126l-371 -1l-68 -330h-153h-153zM582 582h288q112 0 182 56q69 55 91 161q4 19 6 36.5t2 31.5q0 75 -48 114t-142 39h-288z" />
<glyph unicode="&#xdf;" horiz-adv-x="1251" d="M141 0l215 1040l9 42q40 197 193 308t383 111q234 0 334 -104t59 -304q-30 -143 -198 -253q42 -21 72 -47q125 -109 78 -337q-45 -218 -214.5 -351.5t-402.5 -133.5q-25 0 -51 3.5t-52 9.5l49 227q67 -4 73 -4q116 0 202 70.5t110 186.5q26 128 -38 187.5t-230 59.5 l41 200q131 0 193 40t82 137q18 88 -23 133.5t-138 45.5q-106 0 -163 -52q-56 -52 -81 -175l-215 -1040h-143h-144z" />
<glyph unicode="&#xe0;" d="M113 211q0 18 2.5 41t7.5 45q28 136 134 228t260 113l242 34q34 5 64 17q38 15 58 43.5t19 66.5q-1 40 -27 61q-37 29 -134 29q-74 0 -126 -38.5t-81 -114.5h-271q42 187 184 284t373 97q211 0 305 -82q70 -60 69 -162q1 -35 -8 -75l-123 -593q-15 -72 -9 -110.5 t35 -53.5v-1l-8 -39h-155h-155q-7 64 2 127q-169 -157 -371 -157q-134 0 -210.5 63.5t-76.5 176.5zM410 272q0 -46 29.5 -71t82.5 -25q136 0 241 108q18 18 34 50q17 33 23 62l27 132q-41 -23 -90 -34l-116 -23q-114 -23 -163.5 -58t-63.5 -102q-2 -10 -3 -20t-1 -19z M506 1537h316l129 -299h-206z" />
<glyph unicode="&#xe1;" d="M113 211q0 18 2.5 41t7.5 45q28 136 134 228t260 113l242 34q34 5 64 17q38 15 58 43.5t19 66.5q-1 40 -27 61q-37 29 -134 29q-74 0 -126 -38.5t-81 -114.5h-271q42 187 184 284t373 97q211 0 305 -82q70 -60 69 -162q1 -35 -8 -75l-123 -593q-15 -72 -9 -110.5 t35 -53.5v-1l-8 -39h-155h-155q-7 64 2 127q-169 -157 -371 -157q-134 0 -210.5 63.5t-76.5 176.5zM410 272q0 -46 29.5 -71t82.5 -25q136 0 241 108q18 18 34 50q17 33 23 62l27 132q-41 -23 -90 -34l-116 -23q-114 -23 -163.5 -58t-63.5 -102q-2 -10 -3 -20t-1 -19z M707 1238l256 297h313l-360 -297h-209z" />
<glyph unicode="&#xe2;" d="M113 211q0 18 2.5 41t7.5 45q28 136 134 228t260 113l242 34q34 5 64 17q38 15 58 43.5t19 66.5q-1 40 -27 61q-37 29 -134 29q-74 0 -126 -38.5t-81 -114.5h-271q42 187 184 284t373 97q211 0 305 -82q70 -60 69 -162q1 -35 -8 -75l-123 -593q-15 -72 -9 -110.5 t35 -53.5v-1l-8 -39h-155h-155q-7 64 2 127q-169 -157 -371 -157q-134 0 -210.5 63.5t-76.5 176.5zM410 272q0 -46 29.5 -71t82.5 -25q136 0 241 108q18 18 34 50q17 33 23 62l27 132q-41 -23 -90 -34l-116 -23q-114 -23 -163.5 -58t-63.5 -102q-2 -10 -3 -20t-1 -19z M464 1238l300 299h127h127l168 -299h-229l-95 167l-164 -167h-234z" />
<glyph unicode="&#xe3;" d="M113 211q0 18 2.5 41t7.5 45q28 136 134 228t260 113l242 34q34 5 64 17q38 15 58 43.5t19 66.5q-1 40 -27 61q-37 29 -134 29q-74 0 -126 -38.5t-81 -114.5h-271q42 187 184 284t373 97q211 0 305 -82q70 -60 69 -162q1 -35 -8 -75l-123 -593q-15 -72 -9 -110.5 t35 -53.5v-1l-8 -39h-155h-155q-7 64 2 127q-169 -157 -371 -157q-134 0 -210.5 63.5t-76.5 176.5zM410 272q0 -46 29.5 -71t82.5 -25q136 0 241 108q18 18 34 50q17 33 23 62l27 132q-41 -23 -90 -34l-116 -23q-114 -23 -163.5 -58t-63.5 -102q-2 -10 -3 -20t-1 -19z M467 1253q43 114 124 181t175 67q26 0 70 -12.5t82 -30.5q29 -13 60.5 -22.5t48.5 -9.5q34 0 67.5 24.5t47.5 60.5h130q-40 -117 -112.5 -182.5t-160.5 -65.5q-31 0 -83 12.5t-95 30.5q-34 13 -65.5 22.5t-44.5 9.5q-33 0 -66 -24.5t-48 -60.5h-130z" />
<glyph unicode="&#xe4;" d="M113 211q0 18 2.5 41t7.5 45q28 136 134 228t260 113l242 34q34 5 64 17q38 15 58 43.5t19 66.5q-1 40 -27 61q-37 29 -134 29q-74 0 -126 -38.5t-81 -114.5h-271q42 187 184 284t373 97q211 0 305 -82q70 -60 69 -162q1 -35 -8 -75l-123 -593q-15 -72 -9 -110.5 t35 -53.5v-1l-8 -39h-155h-155q-7 64 2 127q-169 -157 -371 -157q-134 0 -210.5 63.5t-76.5 176.5zM410 272q0 -46 29.5 -71t82.5 -25q136 0 241 108q18 18 34 50q17 33 23 62l27 132q-41 -23 -90 -34l-116 -23q-114 -23 -163.5 -58t-63.5 -102q-2 -10 -3 -20t-1 -19z M518 1257l49 235h258l-49 -235h-258zM920 1257l49 235h258l-49 -235h-258z" />
<glyph unicode="&#xe5;" d="M113 211q0 18 2.5 41t7.5 45q28 136 134 228t260 113l242 34q34 5 64 17q38 15 58 43.5t19 66.5q-1 40 -27 61q-37 29 -134 29q-74 0 -126 -38.5t-81 -114.5h-271q42 187 184 284t373 97q211 0 305 -82q70 -60 69 -162q1 -35 -8 -75l-123 -593q-15 -72 -9 -110.5 t35 -53.5v-1l-8 -39h-155h-155q-7 64 2 127q-169 -157 -371 -157q-134 0 -210.5 63.5t-76.5 176.5zM410 272q0 -46 29.5 -71t82.5 -25q136 0 241 108q18 18 34 50q17 33 23 62l27 132q-41 -23 -90 -34l-116 -23q-114 -23 -163.5 -58t-63.5 -102q-2 -10 -3 -20t-1 -19z M646 1379q18 89 95 151t170 62t144 -62t33 -151q-19 -89 -95 -151t-169 -62t-145 62t-33 151zM760 1379q-9 -42 16 -70.5t70 -28.5t82 28.5t46 70.5q8 42 -17 70.5t-70 28.5t-82 -28.5t-45 -70.5z" />
<glyph unicode="&#xe6;" horiz-adv-x="1821" d="M115 205v3q0 19 2.5 41.5t7.5 46.5q26 127 117 212.5t220 105.5l294 46q51 8 94 21q24 8 41 28.5t23 50.5l1 6q14 65 -25.5 94t-142.5 29q-84 0 -133.5 -35t-80.5 -118h-271q42 187 180.5 284t363.5 97q205 0 296 -82q17 -15 30 -33q150 115 352 115q195 0 295 -98 t100 -286v-4q1 -48 -6 -104.5t-20 -118.5l-7 -35h-744l-2 -14q-4 -31 -4 -58q1 -99 50.5 -148t150.5 -49q73 0 132.5 31.5t84.5 82.5h290q-79 -166 -230 -256q-149 -89 -347 -89q-185 0 -284 96q-34 34 -55 76l-7 -5q-188 -167 -431 -167q-165 0 -250 60t-85 174zM412 277 q0 -45 32.5 -73t85.5 -28q138 0 244 105l19 21q14 15 27 43q14 28 19 53l24 116q-46 -19 -107 -31l-117 -23q-120 -24 -166 -55q-44 -30 -58 -98q-3 -16 -3 -30zM1149 658h443l1 38q0 94 -44 139.5t-135 45.5q-115 0 -190 -89q-44 -52 -75 -134z" />
<glyph unicode="&#xe7;" d="M162 352q0 42 5.5 90.5t15.5 97.5q56 271 225.5 424t414.5 153q209 0 314 -110q87 -90 86 -240l-4 -67h-290q-4 93 -41 134.5t-115 41.5q-112 0 -185.5 -87.5t-110.5 -262.5q-6 -33 -10 -66.5t-4 -61.5q0 -91 40 -141t113 -50q83 0 152 52.5t99 137.5h290 q-69 -196 -227.5 -311t-361.5 -115q-196 0 -301 98t-105 283zM199 -413l65 96q47 -15 87.5 -24t63.5 -9q40 0 73 23t40 57q6 30 -13 52t-51 22q-12 0 -39 -5t-46 -11l-35 41l151 171h118l-101 -111l60 7q82 0 123 -44t26 -116q-18 -87 -102.5 -145t-194.5 -58q-60 0 -117 14 t-108 40z" />
<glyph unicode="&#xe8;" d="M143 361q1 40 6 86t14 93q56 271 224.5 424t411.5 153q205 0 310 -100t105 -294q0 -48 -6 -103t-19 -114l-7 -35h-746l-2 -14q-4 -30 -4 -57q1 -99 51 -148.5t151 -49.5q73 0 133 31.5t85 82.5h290q-76 -159 -226.5 -252t-330.5 -93q-213 0 -326.5 100.5t-113.5 289.5z M483 658h445l1 38q0 94 -44.5 139.5t-135.5 45.5q-115 0 -191 -89q-44 -52 -75 -134zM526 1537h316l129 -299h-206z" />
<glyph unicode="&#xe9;" d="M143 361q1 40 6 86t14 93q56 271 224.5 424t411.5 153q205 0 310 -100t105 -294q0 -48 -6 -103t-19 -114l-7 -35h-746l-2 -14q-4 -30 -4 -57q1 -99 51 -148.5t151 -49.5q73 0 133 31.5t85 82.5h290q-76 -159 -226.5 -252t-330.5 -93q-213 0 -326.5 100.5t-113.5 289.5z M483 658h445l1 38q0 94 -44.5 139.5t-135.5 45.5q-115 0 -191 -89q-44 -52 -75 -134zM727 1238l256 297h313l-360 -297h-209z" />
<glyph unicode="&#xea;" d="M143 361q1 40 6 86t14 93q56 271 224.5 424t411.5 153q205 0 310 -100t105 -294q0 -48 -6 -103t-19 -114l-7 -35h-746l-2 -14q-4 -30 -4 -57q1 -99 51 -148.5t151 -49.5q73 0 133 31.5t85 82.5h290q-76 -159 -226.5 -252t-330.5 -93q-213 0 -326.5 100.5t-113.5 289.5z M483 658h445l1 38q0 94 -44.5 139.5t-135.5 45.5q-115 0 -191 -89q-44 -52 -75 -134zM484 1238l300 299h127h127l168 -299h-229l-95 167l-164 -167h-234z" />
<glyph unicode="&#xeb;" d="M143 361q1 40 6 86t14 93q56 271 224.5 424t411.5 153q205 0 310 -100t105 -294q0 -48 -6 -103t-19 -114l-7 -35h-746l-2 -14q-4 -30 -4 -57q1 -99 51 -148.5t151 -49.5q73 0 133 31.5t85 82.5h290q-76 -159 -226.5 -252t-330.5 -93q-213 0 -326.5 100.5t-113.5 289.5z M483 658h445l1 38q0 94 -44.5 139.5t-135.5 45.5q-115 0 -191 -89q-44 -52 -75 -134zM538 1257l49 235h258l-49 -235h-258zM940 1257l49 235h258l-49 -235h-258z" />
<glyph unicode="&#xec;" horiz-adv-x="569" d="M141 0l225 1088h143h144l-225 -1088h-143h-144zM221 1537h316l129 -299h-206z" />
<glyph unicode="&#xed;" horiz-adv-x="569" d="M141 0l225 1088h143h144l-225 -1088h-143h-144zM422 1238l256 297h313l-360 -297h-209z" />
<glyph unicode="&#xee;" horiz-adv-x="569" d="M141 0l225 1088h143h144l-225 -1088h-143h-144zM179 1238l300 299h127h127l168 -299h-229l-95 167l-164 -167h-234z" />
<glyph unicode="&#xef;" horiz-adv-x="569" d="M141 0l225 1088h143h144l-225 -1088h-143h-144zM233 1257l49 235h258l-49 -235h-258zM635 1257l49 235h258l-49 -235h-258z" />
<glyph unicode="&#xf0;" horiz-adv-x="1251" d="M168 377q0 31 4 69.5t11 73.5q53 256 222.5 406t406.5 150q134 1 216 -94q-13 42 -31 80q-38 79 -96 151l-247 -96l-104 104l245 96q-58 50 -131 95l239 102q75 -46 138 -101l244 95l104 -104l-247 -96q73 -87 121 -192q75 -165 75 -337q0 -86 -18 -173 q-60 -292 -246.5 -463.5t-444.5 -171.5q-213 0 -337 109t-124 297zM467 420q1 -96 57.5 -152t153.5 -56q121 0 210.5 88t120.5 237q4 22 7 45.5t3 41.5q0 97 -57.5 154t-154.5 57q-126 0 -211 -86q-86 -86 -119 -244q-4 -21 -7 -44t-3 -41z" />
<glyph unicode="&#xf1;" horiz-adv-x="1251" d="M133 0l225 1088h139h139l-32 -156l40 45q136 140 330 140q176 0 255 -99.5t42 -275.5l-153 -742h-143h-144l139 672q21 104 -12 154t-123 50q-110 0 -186 -66.5t-100 -184.5l-129 -625h-143h-144zM523 1253q43 114 124 181t175 67q26 0 70 -12.5t82 -30.5 q29 -13 60.5 -22.5t48.5 -9.5q34 0 67.5 24.5t47.5 60.5h130q-40 -117 -112.5 -182.5t-160.5 -65.5q-31 0 -83 12.5t-95 30.5q-34 13 -65.5 22.5t-44.5 9.5q-33 0 -66 -24.5t-48 -60.5h-130z" />
<glyph unicode="&#xf2;" horiz-adv-x="1251" d="M168 386q0 33 4.5 74.5t12.5 79.5q55 265 237.5 421t439.5 156q211 0 333.5 -113t122.5 -307q0 -34 -5 -76t-13 -81q-54 -262 -236.5 -415.5t-438.5 -153.5q-211 0 -333.5 111.5t-123.5 303.5zM468 421q0 -100 53.5 -154.5t152.5 -54.5q131 0 214 86t119 259q6 28 9 56 t3 51q0 101 -54 156.5t-153 55.5q-130 0 -213 -87.5t-120 -263.5q-5 -27 -8.5 -54t-2.5 -50zM568 1537h316l129 -299h-206z" />
<glyph unicode="&#xf3;" horiz-adv-x="1251" d="M168 386q0 33 4.5 74.5t12.5 79.5q55 265 237.5 421t439.5 156q211 0 333.5 -113t122.5 -307q0 -34 -5 -76t-13 -81q-54 -262 -236.5 -415.5t-438.5 -153.5q-211 0 -333.5 111.5t-123.5 303.5zM468 421q0 -100 53.5 -154.5t152.5 -54.5q131 0 214 86t119 259q6 28 9 56 t3 51q0 101 -54 156.5t-153 55.5q-130 0 -213 -87.5t-120 -263.5q-5 -27 -8.5 -54t-2.5 -50zM769 1238l256 297h313l-360 -297h-209z" />
<glyph unicode="&#xf4;" horiz-adv-x="1251" d="M168 386q0 33 4.5 74.5t12.5 79.5q55 265 237.5 421t439.5 156q211 0 333.5 -113t122.5 -307q0 -34 -5 -76t-13 -81q-54 -262 -236.5 -415.5t-438.5 -153.5q-211 0 -333.5 111.5t-123.5 303.5zM468 421q0 -100 53.5 -154.5t152.5 -54.5q131 0 214 86t119 259q6 28 9 56 t3 51q0 101 -54 156.5t-153 55.5q-130 0 -213 -87.5t-120 -263.5q-5 -27 -8.5 -54t-2.5 -50zM526 1238l300 299h127h127l168 -299h-229l-95 167l-164 -167h-234z" />
<glyph unicode="&#xf5;" horiz-adv-x="1251" d="M168 386q0 33 4.5 74.5t12.5 79.5q55 265 237.5 421t439.5 156q211 0 333.5 -113t122.5 -307q0 -34 -5 -76t-13 -81q-54 -262 -236.5 -415.5t-438.5 -153.5q-211 0 -333.5 111.5t-123.5 303.5zM468 421q0 -100 53.5 -154.5t152.5 -54.5q131 0 214 86t119 259q6 28 9 56 t3 51q0 101 -54 156.5t-153 55.5q-130 0 -213 -87.5t-120 -263.5q-5 -27 -8.5 -54t-2.5 -50zM529 1253q43 114 124 181t175 67q26 0 70 -12.5t82 -30.5q29 -13 60.5 -22.5t48.5 -9.5q34 0 67.5 24.5t47.5 60.5h130q-40 -117 -112.5 -182.5t-160.5 -65.5q-31 0 -83 12.5 t-95 30.5q-34 13 -65.5 22.5t-44.5 9.5q-33 0 -66 -24.5t-48 -60.5h-130z" />
<glyph unicode="&#xf6;" horiz-adv-x="1251" d="M168 386q0 33 4.5 74.5t12.5 79.5q55 265 237.5 421t439.5 156q211 0 333.5 -113t122.5 -307q0 -34 -5 -76t-13 -81q-54 -262 -236.5 -415.5t-438.5 -153.5q-211 0 -333.5 111.5t-123.5 303.5zM468 421q0 -100 53.5 -154.5t152.5 -54.5q131 0 214 86t119 259q6 28 9 56 t3 51q0 101 -54 156.5t-153 55.5q-130 0 -213 -87.5t-120 -263.5q-5 -27 -8.5 -54t-2.5 -50zM580 1257l49 235h258l-49 -235h-258zM982 1257l49 235h258l-49 -235h-258z" />
<glyph unicode="&#xf7;" horiz-adv-x="1196" d="M168 404l47 226h1030l-47 -226h-1030zM438 93q15 76 78.5 128.5t139.5 52.5t117.5 -52.5t26.5 -128.5q-16 -76 -79 -128.5t-139 -52.5t-118 52.5t-26 128.5zM613 941q16 76 79.5 128.5t139.5 52.5t117.5 -52.5t25.5 -128.5q-15 -76 -78.5 -128.5t-139.5 -52.5 t-117.5 52.5t-26.5 128.5z" />
<glyph unicode="&#xf8;" horiz-adv-x="1251" d="M45 3l186 157q-59 94 -59 226q0 33 4.5 74.5t12.5 79.5q55 265 237.5 421t439.5 156q211 0 333 -113l14 -13l178 151l57 -62l-183 -155q56 -95 57 -228q0 -34 -5 -76t-13 -81q-54 -262 -236.5 -415.5t-438.5 -153.5q-211 0 -334 112l-12 11l-174 -148zM471.5 418 q0.5 -26 4.5 -51l284 241l225 190q-5 15 -16 23q-54 55 -153 55q-130 0 -213 -87.5t-120 -263.5q-5 -27 -8.5 -54t-3 -53zM510 286q5 -11 16 -20q53 -54 152 -54q131 0 214 86t119 259q6 28 9 56t3 51q1 29 -5 52l-285 -241z" />
<glyph unicode="&#xf9;" horiz-adv-x="1251" d="M201 261q0 56 14 123l146 704h143h144l-139 -672q-22 -104 11 -154t123 -50q110 0 186 66.5t100 184.5l130 625h143h144l-225 -1088h-139h-139l32 159q-17 -24 -41 -48q-135 -140 -329 -140q-176 0 -254 110q-50 71 -50 180zM565 1537h316l129 -299h-206z" />
<glyph unicode="&#xfa;" horiz-adv-x="1251" d="M201 261q0 56 14 123l146 704h143h144l-139 -672q-22 -104 11 -154t123 -50q110 0 186 66.5t100 184.5l130 625h143h144l-225 -1088h-139h-139l32 159q-17 -24 -41 -48q-135 -140 -329 -140q-176 0 -254 110q-50 71 -50 180zM766 1238l256 297h313l-360 -297h-209z" />
<glyph unicode="&#xfb;" horiz-adv-x="1251" d="M201 261q0 56 14 123l146 704h143h144l-139 -672q-22 -104 11 -154t123 -50q110 0 186 66.5t100 184.5l130 625h143h144l-225 -1088h-139h-139l32 159q-17 -24 -41 -48q-135 -140 -329 -140q-176 0 -254 110q-50 71 -50 180zM523 1238l300 299h127h127l168 -299h-229 l-95 167l-164 -167h-234z" />
<glyph unicode="&#xfc;" horiz-adv-x="1251" d="M201 261q0 56 14 123l146 704h143h144l-139 -672q-22 -104 11 -154t123 -50q110 0 186 66.5t100 184.5l130 625h143h144l-225 -1088h-139h-139l32 159q-17 -24 -41 -48q-135 -140 -329 -140q-176 0 -254 110q-50 71 -50 180zM577 1257l49 235h258l-49 -235h-258z M979 1257l49 235h258l-49 -235h-258z" />
<glyph unicode="&#xfd;" d="M86 -448l47 228q9 -4 56 -4q117 0 160 45q29 29 73 130l-172 1137h160h160l66 -812l397 812h151h151l-593 -1080q-164 -301 -256 -382t-267 -81q-79 0 -133 7zM705 1238l256 297h313l-360 -297h-209z" />
<glyph unicode="&#xfe;" horiz-adv-x="1251" d="M37 -426l392 1896h143h144l-107 -516l1 1q162 162 356 162q166 0 259.5 -101.5t93.5 -280.5q-1 -41 -6.5 -92.5t-15.5 -100.5q-51 -246 -205.5 -408.5t-336.5 -162.5q-215 0 -306 154l-9 15l-116 -566h-143h-144zM520 551h1q-35 -165 9 -254.5t159 -89.5q109 0 194 89 t115 235q7 32 11 64.5t3 60.5q0 101 -48.5 156.5t-137.5 55.5q-106 0 -192 -89t-114 -228z" />
<glyph unicode="&#xff;" d="M86 -448l47 228q9 -4 56 -4q117 0 160 45q29 29 73 130l-172 1137h160h160l66 -812l397 812h151h151l-593 -1080q-164 -301 -256 -382t-267 -81q-79 0 -133 7zM516 1257l49 235h258l-49 -235h-258zM918 1257l49 235h258l-49 -235h-258z" />
<glyph unicode="&#x152;" horiz-adv-x="2048" d="M203 470q0 54 8 123t22 137q75 365 280 571q204 205 492 205q185 0 275 -102l4 -4l15 70h299h662l-25 -131l-25 -131h-666l-64 -305h633l-27 -131l-27 -131h-633l-78 -379h676l-29 -131l-29 -131h-672h-299l17 83q-142 -118 -347 -119q-217 0 -339.5 134t-122.5 372z M511 525q0 -147 70.5 -229.5t195.5 -82.5q132 1 237 90q22 18 42 54q20 35 27 68l128 621q7 35 3 70.5t-17 51.5l-10 13q-66 79 -194 79q-170 0 -287.5 -142.5t-173.5 -416.5q-10 -46 -15.5 -93t-5.5 -83z" />
<glyph unicode="&#x153;" horiz-adv-x="1933" d="M168 379q0 33 5 76.5t13 84.5q55 265 230 421q173 156 415 156q211 0 320 -97q27 -23 47 -54q175 151 388 151q205 0 310 -100t105 -294q0 -48 -6 -103t-19 -114l-7 -35h-746l-2 -14q-4 -30 -4 -57q1 -99 51 -148.5t151 -49.5q73 0 133 31.5t85 82.5h290 q-76 -159 -226.5 -252t-330.5 -93q-213 0 -327 101q-23 21 -42 46q-171 -148 -407 -147q-197 0 -311.5 110t-114.5 298zM468 420q1 -99 54 -153.5t151 -54.5q130 0 212.5 86t118.5 259q6 29 9 57t3 51q0 101 -53 156q-54 55 -152 55q-129 0 -211.5 -87.5t-119.5 -263.5 q-5 -27 -8.5 -54.5t-3.5 -50.5zM1270 658h445l1 38q0 94 -44.5 139.5t-135.5 45.5q-115 0 -191 -89q-44 -52 -75 -134z" />
<glyph unicode="&#x178;" horiz-adv-x="1366" d="M344 1470h181h181l167 -634l424 634h173h174l-686 -913l-115 -557h-153h-153l115 556zM698 1639l49 235h258l-49 -235h-258zM1100 1639l49 235h258l-49 -235h-258z" />
<glyph unicode="&#x2c6;" horiz-adv-x="682" d="M242 1238l301 299h127h127l167 -299h-229l-94 167l-165 -167h-234z" />
<glyph unicode="&#x2dc;" horiz-adv-x="682" d="M231 1253q44 114 124.5 181t174.5 67q26 0 70 -12.5t82 -30.5q30 -13 61.5 -22.5t48.5 -9.5q34 0 67 24.5t47 60.5h130q-40 -117 -112.5 -182.5t-160.5 -65.5q-31 0 -83 12.5t-95 30.5q-33 13 -64.5 22.5t-44.5 9.5q-33 0 -66.5 -24.5t-48.5 -60.5h-130z" />
<glyph unicode="&#x2000;" horiz-adv-x="987" />
<glyph unicode="&#x2001;" horiz-adv-x="1974" />
<glyph unicode="&#x2002;" horiz-adv-x="987" />
<glyph unicode="&#x2003;" horiz-adv-x="1974" />
<glyph unicode="&#x2004;" horiz-adv-x="658" />
<glyph unicode="&#x2005;" horiz-adv-x="493" />
<glyph unicode="&#x2006;" horiz-adv-x="329" />
<glyph unicode="&#x2007;" horiz-adv-x="329" />
<glyph unicode="&#x2008;" horiz-adv-x="246" />
<glyph unicode="&#x2009;" horiz-adv-x="394" />
<glyph unicode="&#x200a;" horiz-adv-x="109" />
<glyph unicode="&#x2010;" horiz-adv-x="682" d="M150 441l55 266h574l-55 -266h-574z" />
<glyph unicode="&#x2011;" horiz-adv-x="682" d="M150 441l55 266h574l-55 -266h-574z" />
<glyph unicode="&#x2012;" horiz-adv-x="682" d="M150 441l55 266h574l-55 -266h-574z" />
<glyph unicode="&#x2013;" d="M98 469l47 210h1138l-47 -210h-1138z" />
<glyph unicode="&#x2014;" horiz-adv-x="2048" d="M98 469l43 210h2048l-43 -210h-2048z" />
<glyph unicode="&#x2018;" horiz-adv-x="569" d="M338 928l40 196q32 151 119.5 240t239.5 124l-22 -106q-101 -31 -145 -87q-30 -37 -50 -107h16h145l-27 -130l-27 -130h-145h-144z" />
<glyph unicode="&#x2019;" horiz-adv-x="569" d="M342 910l22 106q100 31 145 87q30 37 50 107h-16h-145l27 130l27 130h145h144l-41 -196q-31 -151 -119 -240t-239 -124z" />
<glyph unicode="&#x201a;" horiz-adv-x="569" d="M84 -300l22 106q101 31 145 87q30 37 50 107h-16h-145l26 130l27 130h145h144l-40 -196q-31 -151 -118.5 -240t-239.5 -124z" />
<glyph unicode="&#x201c;" horiz-adv-x="1024" d="M328 928l40 196q32 151 119.5 240t239.5 124l-22 -106q-101 -31 -145 -87q-30 -37 -50 -107h16h145l-27 -130l-27 -130h-145h-144zM801 928l40 196q32 151 119.5 240t239.5 124l-22 -106q-101 -31 -145 -87q-30 -37 -50 -107h16h145l-27 -130l-27 -130h-145h-144z" />
<glyph unicode="&#x201d;" horiz-adv-x="1024" d="M332 910l22 106q100 31 145 87q30 37 50 107h-16h-145l27 130l27 130h145h144l-41 -196q-31 -151 -119 -240t-239 -124zM805 910l22 106q100 31 145 87q30 37 50 107h-16h-145l27 130l27 130h145h144l-41 -196q-31 -151 -119 -240t-239 -124z" />
<glyph unicode="&#x201e;" horiz-adv-x="1024" d="M74 -300l22 106q101 31 145 87q30 37 50 107h-16h-145l26 130l27 130h145h144l-40 -196q-31 -151 -118.5 -240t-239.5 -124zM547 -300l22 106q101 31 145 87q30 37 50 107h-16h-145l26 130l27 130h145h144l-40 -196q-31 -151 -118.5 -240t-239.5 -124z" />
<glyph unicode="&#x2022;" horiz-adv-x="717" d="M170 736q29 142 147 240t260 98t219 -98t48 -240t-148 -240q-117 -97 -259 -97t-219 97.5t-48 239.5z" />
<glyph unicode="&#x2026;" horiz-adv-x="2048" d="M188 0l61 298h308l-61 -298h-308zM876 0l61 298h308l-61 -298h-308zM1565 0l61 298h308l-61 -298h-308z" />
<glyph unicode="&#x202f;" horiz-adv-x="394" />
<glyph unicode="&#x2039;" horiz-adv-x="682" d="M266 453l25 120l25 120l406 295l-49 -237l-245 -178l171 -179l-49 -237z" />
<glyph unicode="&#x203a;" horiz-adv-x="682" d="M203 157l49 237l245 178l-171 179l49 237l284 -296l-25 -120l-25 -120z" />
<glyph unicode="&#x205f;" horiz-adv-x="493" />
<glyph unicode="&#x20ac;" d="M110 435l88 214h99l10 54l12 54h-143l89 214h116q67 183 165 296q162 187 409 187q198 0 293 -119q82 -104 82 -288l-2 -61h-288q13 115 -17.5 168.5t-109.5 53.5q-106 0 -183 -124q-28 -47 -56 -113h299l-89 -214h-274l-10 -53l-11 -55h250l-88 -214h-189l1 -23 q-1 -104 32.5 -154t102.5 -50q67 0 126.5 61t88.5 160h288q-61 -229 -201 -348q-137 -119 -343 -119q-186 0 -285 114.5t-99 330.5v28h-163z" />
<glyph unicode="&#x2122;" horiz-adv-x="2048" d="M367 1292l19 89l21 89h702l-18 -89l-16 -89h-238l-137 -660h-115h-116l137 660h-239zM1080 632l174 838h156h157l84 -519l313 519h156h157l-174 -838h-110h-111l129 619l-336 -619h-86h-86l-85 586l-122 -586h-108h-108z" />
<glyph unicode="&#xe000;" horiz-adv-x="1090" d="M0 0v1090h1090v-1090h-1090z" />
<glyph unicode="&#xfb01;" horiz-adv-x="1251" d="M178 0l182 883h-160l43 205h160l19 91q32 158 131 234.5t272 76.5l132 -3l-48 -236h-87q-58 0 -83 -23.5t-39 -90.5l-10 -49h185l-43 -205h-185l-182 -883h-143h-144zM831 0l225 1088h143h144l-225 -1088h-143h-144zM1093 1220l54 262h290l-54 -262h-290z" />
</font>
</defs></svg> 